<svg width="622" height="119" viewBox="0 0 622 119" fill="none" xmlns="http://www.w3.org/2000/svg">
<path d="M67.0318 60.596C67.0318 35.308 28.8678 37.048 28.8678 26.724C28.8678 23.94 30.4918 22.548 32.5798 22.548C35.3638 22.548 38.0318 24.056 38.2638 29.044H65.9878C65.2918 11.992 52.5318 2.48 32.6958 2.48C15.1798 2.48 1.25975 11.064 1.25975 27.536C0.795755 55.608 39.5398 51.548 39.6558 62.684C39.6558 65.584 37.2198 66.744 34.6678 66.744C32.1158 66.744 28.8678 65.7 28.4038 59.668H1.02775C2.18775 78.112 16.9198 86.812 35.7118 86.812C55.5478 86.812 67.0318 75.676 67.0318 60.596ZM115.288 39.948C119.116 39.948 122.596 42.036 122.596 46.56H107.284C108.096 42.036 110.996 39.948 115.288 39.948ZM147.304 62.452H120.044C119.116 64.424 117.376 66.28 114.012 66.28C110.532 66.28 107.4 64.424 107.052 57.812H148.348C148.58 56.188 148.696 54.332 148.696 52.708C148.696 32.176 134.892 19.764 115.288 19.764C95.6838 19.764 81.8798 32.408 81.8798 53.288C81.8798 74.168 95.6838 86.812 115.288 86.812C131.76 86.812 144.52 76.372 147.304 62.452ZM209.04 86H237.808L214.144 54.216L236.764 20.576H208.46L200.108 35.424L189.088 20.576H160.32L183.404 51.548L161.48 86H189.784L198.02 71.268L209.04 86ZM318.541 53.288C318.541 32.408 303.693 19.764 283.973 19.764C264.253 19.764 249.405 32.408 249.405 53.288C249.405 74.168 264.253 86.812 283.973 86.812C303.693 86.812 318.541 74.168 318.541 53.288ZM275.505 53.288C275.505 45.516 279.449 42.036 283.973 42.036C288.497 42.036 292.441 45.516 292.441 53.288C292.441 61.06 288.497 64.54 283.973 64.54C279.333 64.54 275.505 61.06 275.505 53.288ZM380.223 59.668C380.223 63.728 378.019 65.352 373.379 65.352H361.663V53.752H373.379C378.019 53.752 380.223 55.724 380.223 59.668ZM378.483 30.204C378.483 34.148 376.279 35.888 371.639 35.888H361.663V24.288H371.639C376.279 24.288 378.483 26.144 378.483 30.204ZM406.555 63.496C406.555 54.332 400.987 46.328 390.895 43.892C399.015 41.804 404.699 35.076 404.699 25.216C404.699 10.948 394.143 3.872 377.787 3.872H335.911V86H378.947C396.811 86 406.555 77.88 406.555 63.496ZM424.488 86H450.24V0.159999H424.488V86ZM536.806 53.288C536.806 32.408 521.958 19.764 502.238 19.764C482.518 19.764 467.67 32.408 467.67 53.288C467.67 74.168 482.518 86.812 502.238 86.812C521.958 86.812 536.806 74.168 536.806 53.288ZM493.77 53.288C493.77 45.516 497.714 42.036 502.238 42.036C506.762 42.036 510.706 45.516 510.706 53.288C510.706 61.06 506.762 64.54 502.238 64.54C497.598 64.54 493.77 61.06 493.77 53.288ZM550.696 53.288C550.696 74.4 562.644 86.812 577.724 86.812C586.424 86.812 592.688 82.984 595.82 77.068V84.84C595.82 94.004 591.412 95.86 586.192 95.86C581.436 95.86 578.536 94.12 577.84 90.756H552.552C554.292 107.344 566.704 118.132 588.048 118.132C612.524 118.132 621.456 102.124 621.456 84.84V20.576H595.82V29.508C592.688 23.592 586.424 19.764 577.724 19.764C562.644 19.764 550.696 32.176 550.696 53.288ZM595.82 53.288C595.82 60.48 591.644 64.308 586.308 64.308C580.972 64.308 576.796 60.48 576.796 53.288C576.796 46.096 580.972 42.268 586.308 42.268C591.644 42.268 595.82 46.096 595.82 53.288Z" fill="#151515"/>
</svg>
